info face="Terminal" size=32 bold=0 italic=0 charset="" unicode=1 stretchH=100 smooth=1 aa=1 padding=0,0,0,0 spacing=1,1 outline=0
common lineHeight=32 base=28 scaleW=256 scaleH=256 pages=2 packed=0 alphaChnl=0 redChnl=3 greenChnl=3 blueChnl=3
page id=0 file="terminal.black.reg_0.png"
page id=1 file="terminal.black.reg_1.png"
chars count=228
char id=0    x=118   y=149   width=72    height=1     xoffset=-24   yoffset=31    xadvance=24    page=1  chnl=15
char id=1    x=107   y=66    width=22    height=28    xoffset=2     yoffset=0     xadvance=24    page=0  chnl=15
char id=2    x=84    y=66    width=22    height=28    xoffset=2     yoffset=0     xadvance=24    page=0  chnl=15
char id=3    x=76    y=115   width=18    height=18    xoffset=4     yoffset=6     xadvance=24    page=1  chnl=15
char id=4    x=38    y=115   width=18    height=18    xoffset=4     yoffset=6     xadvance=24    page=1  chnl=15
char id=5    x=169   y=25    width=22    height=22    xoffset=2     yoffset=4     xadvance=24    page=1  chnl=15
char id=6    x=105   y=50    width=18    height=22    xoffset=4     yoffset=4     xadvance=24    page=1  chnl=15
char id=7    x=240   y=124   width=8     height=8     xoffset=8     yoffset=12    xadvance=24    page=1  chnl=15
char id=8    x=75    y=0     width=24    height=32    xoffset=0     yoffset=0     xadvance=24    page=0  chnl=15
char id=9    x=191   y=238   width=12    height=16    xoffset=6     yoffset=8     xadvance=24    page=0  chnl=15
char id=10   x=125   y=0     width=24    height=32    xoffset=0     yoffset=0     xadvance=24    page=0  chnl=15
char id=11   x=208   y=71    width=20    height=18    xoffset=2     yoffset=6     xadvance=24    page=1  chnl=15
char id=12   x=72    y=25    width=16    height=24    xoffset=6     yoffset=4     xadvance=24    page=1  chnl=15
char id=13   x=0     y=0     width=14    height=26    xoffset=6     yoffset=0     xadvance=24    page=1  chnl=15
char id=14   x=199   y=33    width=18    height=30    xoffset=2     yoffset=0     xadvance=24    page=0  chnl=15
char id=15   x=0     y=213   width=22    height=26    xoffset=2     yoffset=2     xadvance=24    page=0  chnl=15
char id=16   x=218   y=48    width=12    height=22    xoffset=6     yoffset=4     xadvance=24    page=1  chnl=15
char id=17   x=205   y=48    width=12    height=22    xoffset=6     yoffset=4     xadvance=24    page=1  chnl=15
char id=18   x=232   y=211   width=14    height=26    xoffset=6     yoffset=2     xadvance=24    page=0  chnl=15
char id=19   x=30    y=0     width=12    height=26    xoffset=6     yoffset=2     xadvance=24    page=1  chnl=15
char id=20   x=86    y=211   width=20    height=26    xoffset=2     yoffset=2     xadvance=24    page=0  chnl=15
char id=21   x=55    y=27    width=16    height=24    xoffset=4     yoffset=2     xadvance=24    page=1  chnl=15
char id=22   x=21    y=147   width=16    height=6     xoffset=6     yoffset=22    xadvance=24    page=1  chnl=15
char id=23   x=0     y=66    width=14    height=30    xoffset=6     yoffset=0     xadvance=24    page=0  chnl=15
char id=24   x=217   y=211   width=14    height=26    xoffset=6     yoffset=2     xadvance=24    page=0  chnl=15
char id=25   x=202   y=211   width=14    height=26    xoffset=6     yoffset=2     xadvance=24    page=0  chnl=15
char id=26   x=46    y=240   width=18    height=14    xoffset=4     yoffset=8     xadvance=24    page=0  chnl=15
char id=27   x=227   y=238   width=18    height=14    xoffset=4     yoffset=8     xadvance=24    page=0  chnl=15
char id=28   x=46    y=134   width=20    height=12    xoffset=2     yoffset=16    xadvance=24    page=1  chnl=15
char id=29   x=0     y=240   width=22    height=14    xoffset=2     yoffset=8     xadvance=24    page=0  chnl=15
char id=30   x=0     y=134   width=22    height=12    xoffset=2     yoffset=10    xadvance=24    page=1  chnl=15
char id=31   x=183   y=139   width=72    height=1     xoffset=-24   yoffset=31    xadvance=24    page=1  chnl=15
char id=32   x=110   y=147   width=72    height=1     xoffset=-24   yoffset=31    xadvance=24    page=1  chnl=15
char id=33   x=227   y=182   width=8     height=28    xoffset=8     yoffset=0     xadvance=24    page=0  chnl=15
char id=34   x=227   y=128   width=12    height=8     xoffset=6     yoffset=4     xadvance=24    page=1  chnl=15
char id=35   x=161   y=0     width=22    height=24    xoffset=2     yoffset=2     xadvance=24    page=1  chnl=15
char id=36   x=102   y=182   width=16    height=28    xoffset=4     yoffset=0     xadvance=24    page=0  chnl=15
char id=37   x=138   y=0     width=22    height=24    xoffset=2     yoffset=4     xadvance=24    page=1  chnl=15
char id=38   x=236   y=180   width=18    height=26    xoffset=4     yoffset=2     xadvance=24    page=0  chnl=15
char id=39   x=248   y=90    width=6     height=12    xoffset=8     yoffset=0     xadvance=24    page=1  chnl=15
char id=40   x=162   y=182   width=12    height=28    xoffset=6     yoffset=0     xadvance=24    page=0  chnl=15
char id=41   x=149   y=182   width=12    height=28    xoffset=6     yoffset=0     xadvance=24    page=0  chnl=15
char id=42   x=95    y=115   width=16    height=18    xoffset=4     yoffset=6     xadvance=24    page=1  chnl=15
char id=43   x=157   y=238   width=16    height=16    xoffset=4     yoffset=8     xadvance=24    page=0  chnl=15
char id=44   x=249   y=103   width=6     height=10    xoffset=8     yoffset=22    xadvance=24    page=1  chnl=15
char id=45   x=93    y=147   width=16    height=4     xoffset=4     yoffset=14    xadvance=24    page=1  chnl=15
char id=46   x=38    y=147   width=6     height=6     xoffset=8     yoffset=22    xadvance=24    page=1  chnl=15
char id=47   x=69    y=0     width=22    height=24    xoffset=2     yoffset=2     xadvance=24    page=1  chnl=15
char id=48   x=61    y=66    width=22    height=28    xoffset=2     yoffset=0     xadvance=24    page=0  chnl=15
char id=49   x=51    y=182   width=16    height=28    xoffset=6     yoffset=0     xadvance=24    page=0  chnl=15
char id=50   x=38    y=66    width=22    height=28    xoffset=2     yoffset=0     xadvance=24    page=0  chnl=15
char id=51   x=15    y=66    width=22    height=28    xoffset=2     yoffset=0     xadvance=24    page=0  chnl=15
char id=52   x=0     y=97    width=22    height=28    xoffset=2     yoffset=0     xadvance=24    page=0  chnl=15
char id=53   x=199   y=64    width=22    height=28    xoffset=2     yoffset=0     xadvance=24    page=0  chnl=15
char id=54   x=23    y=95    width=22    height=28    xoffset=2     yoffset=0     xadvance=24    page=0  chnl=15
char id=55   x=153   y=66    width=22    height=28    xoffset=2     yoffset=0     xadvance=24    page=0  chnl=15
char id=56   x=176   y=66    width=22    height=28    xoffset=2     yoffset=0     xadvance=24    page=0  chnl=15
char id=57   x=222   y=64    width=22    height=28    xoffset=2     yoffset=0     xadvance=24    page=0  chnl=15
char id=58   x=247   y=232   width=6     height=18    xoffset=8     yoffset=8     xadvance=24    page=0  chnl=15
char id=59   x=247   y=207   width=6     height=24    xoffset=8     yoffset=8     xadvance=24    page=0  chnl=15
char id=60   x=34    y=184   width=16    height=28    xoffset=4     yoffset=0     xadvance=24    page=0  chnl=15
char id=61   x=67    y=134   width=18    height=12    xoffset=4     yoffset=10    xadvance=24    page=1  chnl=15
char id=62   x=68    y=182   width=16    height=28    xoffset=4     yoffset=0     xadvance=24    page=0  chnl=15
char id=63   x=84    y=153   width=20    height=28    xoffset=2     yoffset=0     xadvance=24    page=0  chnl=15
char id=64   x=130   y=66    width=22    height=28    xoffset=2     yoffset=0     xadvance=24    page=0  chnl=15
char id=65   x=105   y=153   width=20    height=28    xoffset=2     yoffset=0     xadvance=24    page=0  chnl=15
char id=66   x=126   y=153   width=20    height=28    xoffset=2     yoffset=0     xadvance=24    page=0  chnl=15
char id=67   x=147   y=153   width=20    height=28    xoffset=2     yoffset=0     xadvance=24    page=0  chnl=15
char id=68   x=168   y=153   width=20    height=28    xoffset=2     yoffset=0     xadvance=24    page=0  chnl=15
char id=69   x=189   y=153   width=20    height=28    xoffset=2     yoffset=0     xadvance=24    page=0  chnl=15
char id=70   x=210   y=153   width=20    height=28    xoffset=2     yoffset=0     xadvance=24    page=0  chnl=15
char id=71   x=46    y=95    width=20    height=28    xoffset=2     yoffset=0     xadvance=24    page=0  chnl=15
char id=72   x=67    y=95    width=20    height=28    xoffset=2     yoffset=0     xadvance=24    page=0  chnl=15
char id=73   x=136   y=182   width=12    height=28    xoffset=6     yoffset=0     xadvance=24    page=0  chnl=15
char id=74   x=88    y=95    width=20    height=28    xoffset=2     yoffset=0     xadvance=24    page=0  chnl=15
char id=75   x=109   y=95    width=20    height=28    xoffset=2     yoffset=0     xadvance=24    page=0  chnl=15
char id=76   x=130   y=95    width=20    height=28    xoffset=2     yoffset=0     xadvance=24    page=0  chnl=15
char id=77   x=151   y=95    width=20    height=28    xoffset=2     yoffset=0     xadvance=24    page=0  chnl=15
char id=78   x=172   y=95    width=20    height=28    xoffset=2     yoffset=0     xadvance=24    page=0  chnl=15
char id=79   x=193   y=95    width=20    height=28    xoffset=2     yoffset=0     xadvance=24    page=0  chnl=15
char id=80   x=214   y=93    width=20    height=28    xoffset=2     yoffset=0     xadvance=24    page=0  chnl=15
char id=81   x=235   y=93    width=20    height=28    xoffset=2     yoffset=0     xadvance=24    page=0  chnl=15
char id=82   x=0     y=126   width=20    height=28    xoffset=2     yoffset=0     xadvance=24    page=0  chnl=15
char id=83   x=21    y=126   width=20    height=28    xoffset=2     yoffset=0     xadvance=24    page=0  chnl=15
char id=84   x=85    y=182   width=16    height=28    xoffset=4     yoffset=0     xadvance=24    page=0  chnl=15
char id=85   x=42    y=124   width=20    height=28    xoffset=2     yoffset=0     xadvance=24    page=0  chnl=15
char id=86   x=63    y=124   width=20    height=28    xoffset=2     yoffset=0     xadvance=24    page=0  chnl=15
char id=87   x=84    y=124   width=20    height=28    xoffset=2     yoffset=0     xadvance=24    page=0  chnl=15
char id=88   x=105   y=124   width=20    height=28    xoffset=2     yoffset=0     xadvance=24    page=0  chnl=15
char id=89   x=126   y=124   width=20    height=28    xoffset=2     yoffset=0     xadvance=24    page=0  chnl=15
char id=90   x=147   y=124   width=20    height=28    xoffset=2     yoffset=0     xadvance=24    page=0  chnl=15
char id=91   x=214   y=182   width=12    height=28    xoffset=6     yoffset=0     xadvance=24    page=0  chnl=15
char id=92   x=115   y=0     width=22    height=24    xoffset=2     yoffset=2     xadvance=24    page=1  chnl=15
char id=93   x=175   y=182   width=12    height=28    xoffset=6     yoffset=0     xadvance=24    page=0  chnl=15
char id=94   x=23    y=240   width=22    height=14    xoffset=2     yoffset=0     xadvance=24    page=0  chnl=15
char id=95   x=70    y=147   width=22    height=4     xoffset=2     yoffset=28    xadvance=24    page=1  chnl=15
char id=97   x=105   y=94    width=20    height=18    xoffset=2     yoffset=10    xadvance=24    page=1  chnl=15
char id=98   x=168   y=124   width=20    height=28    xoffset=2     yoffset=0     xadvance=24    page=0  chnl=15
char id=99   x=126   y=92    width=20    height=18    xoffset=2     yoffset=10    xadvance=24    page=1  chnl=15
char id=100  x=189   y=124   width=20    height=28    xoffset=2     yoffset=0     xadvance=24    page=0  chnl=15
char id=101  x=147   y=90    width=20    height=18    xoffset=2     yoffset=10    xadvance=24    page=1  chnl=15
char id=102  x=17    y=184   width=16    height=28    xoffset=2     yoffset=0     xadvance=24    page=0  chnl=15
char id=103  x=213   y=25    width=20    height=22    xoffset=2     yoffset=10    xadvance=24    page=1  chnl=15
char id=104  x=231   y=151   width=18    height=28    xoffset=2     yoffset=0     xadvance=24    page=0  chnl=15
char id=105  x=243   y=0     width=12    height=24    xoffset=6     yoffset=4     xadvance=24    page=1  chnl=15
char id=106  x=201   y=182   width=12    height=28    xoffset=6     yoffset=4     xadvance=24    page=0  chnl=15
char id=107  x=119   y=182   width=16    height=28    xoffset=4     yoffset=0     xadvance=24    page=0  chnl=15
char id=108  x=188   y=182   width=12    height=28    xoffset=6     yoffset=0     xadvance=24    page=0  chnl=15
char id=109  x=189   y=90    width=20    height=18    xoffset=2     yoffset=10    xadvance=24    page=1  chnl=15
char id=110  x=229   y=90    width=18    height=18    xoffset=4     yoffset=10    xadvance=24    page=1  chnl=15
char id=111  x=168   y=90    width=20    height=18    xoffset=2     yoffset=10    xadvance=24    page=1  chnl=15
char id=112  x=192   y=25    width=20    height=22    xoffset=2     yoffset=10    xadvance=24    page=1  chnl=15
char id=113  x=234   y=25    width=20    height=22    xoffset=2     yoffset=10    xadvance=24    page=1  chnl=15
char id=114  x=57    y=115   width=18    height=18    xoffset=4     yoffset=10    xadvance=24    page=1  chnl=15
char id=115  x=112   y=113   width=16    height=18    xoffset=2     yoffset=10    xadvance=24    page=1  chnl=15
char id=116  x=185   y=211   width=16    height=26    xoffset=2     yoffset=2     xadvance=24    page=0  chnl=15
char id=117  x=21    y=96    width=20    height=18    xoffset=2     yoffset=10    xadvance=24    page=1  chnl=15
char id=118  x=84    y=96    width=20    height=18    xoffset=2     yoffset=10    xadvance=24    page=1  chnl=15
char id=119  x=63    y=96    width=20    height=18    xoffset=2     yoffset=10    xadvance=24    page=1  chnl=15
char id=120  x=19    y=115   width=18    height=18    xoffset=2     yoffset=10    xadvance=24    page=1  chnl=15
char id=121  x=143   y=48    width=16    height=22    xoffset=4     yoffset=10    xadvance=24    page=1  chnl=15
char id=122  x=210   y=90    width=18    height=18    xoffset=2     yoffset=10    xadvance=24    page=1  chnl=15
char id=123  x=218   y=33    width=16    height=30    xoffset=4     yoffset=0     xadvance=24    page=0  chnl=15
char id=124  x=250   y=151   width=4     height=28    xoffset=10    yoffset=0     xadvance=24    page=0  chnl=15
char id=125  x=235   y=33    width=16    height=30    xoffset=4     yoffset=0     xadvance=24    page=0  chnl=15
char id=126  x=0     y=147   width=20    height=6     xoffset=2     yoffset=4     xadvance=24    page=1  chnl=15
char id=127  x=115   y=238   width=20    height=16    xoffset=2     yoffset=8     xadvance=24    page=0  chnl=15
char id=129  x=184   y=0     width=20    height=24    xoffset=2     yoffset=4     xadvance=24    page=1  chnl=15
char id=141  x=43    y=0     width=12    height=26    xoffset=6     yoffset=2     xadvance=24    page=1  chnl=15
char id=143  x=21    y=155   width=20    height=28    xoffset=2     yoffset=0     xadvance=24    page=0  chnl=15
char id=144  x=0     y=155   width=20    height=28    xoffset=2     yoffset=0     xadvance=24    page=0  chnl=15
char id=157  x=231   y=122   width=20    height=28    xoffset=2     yoffset=0     xadvance=24    page=0  chnl=15
char id=160  x=107   y=211   width=20    height=26    xoffset=2     yoffset=2     xadvance=24    page=0  chnl=15
char id=161  x=56    y=0     width=12    height=26    xoffset=6     yoffset=2     xadvance=24    page=1  chnl=15
char id=162  x=65    y=211   width=20    height=26    xoffset=2     yoffset=2     xadvance=24    page=0  chnl=15
char id=163  x=23    y=213   width=20    height=26    xoffset=2     yoffset=2     xadvance=24    page=0  chnl=15
char id=164  x=205   y=0     width=18    height=24    xoffset=4     yoffset=4     xadvance=24    page=1  chnl=15
char id=165  x=210   y=124   width=20    height=28    xoffset=2     yoffset=0     xadvance=24    page=0  chnl=15
char id=166  x=63    y=52    width=20    height=22    xoffset=2     yoffset=0     xadvance=24    page=1  chnl=15
char id=167  x=42    y=52    width=20    height=22    xoffset=2     yoffset=0     xadvance=24    page=1  chnl=15
char id=168  x=42    y=153   width=20    height=28    xoffset=2     yoffset=0     xadvance=24    page=0  chnl=15
char id=169  x=23    y=134   width=22    height=12    xoffset=2     yoffset=6     xadvance=24    page=1  chnl=15
char id=170  x=204   y=238   width=22    height=14    xoffset=0     yoffset=6     xadvance=24    page=0  chnl=15
char id=171  x=21    y=52    width=20    height=22    xoffset=2     yoffset=4     xadvance=24    page=1  chnl=15
char id=172  x=0     y=52    width=20    height=22    xoffset=2     yoffset=4     xadvance=24    page=1  chnl=15
char id=173  x=245   y=64    width=8     height=28    xoffset=8     yoffset=0     xadvance=24    page=0  chnl=15
char id=174  x=186   y=128   width=18    height=10    xoffset=2     yoffset=10    xadvance=24    page=1  chnl=15
char id=175  x=167   y=128   width=18    height=10    xoffset=2     yoffset=10    xadvance=24    page=1  chnl=15
char id=176  x=225   y=0     width=22    height=32    xoffset=0     yoffset=0     xadvance=24    page=0  chnl=15
char id=177  x=175   y=0     width=24    height=32    xoffset=0     yoffset=0     xadvance=24    page=0  chnl=15
char id=178  x=0     y=0     width=24    height=32    xoffset=0     yoffset=0     xadvance=24    page=0  chnl=15
char id=179  x=248   y=0     width=4     height=32    xoffset=10    yoffset=0     xadvance=24    page=0  chnl=15
char id=180  x=87    y=33    width=14    height=32    xoffset=0     yoffset=0     xadvance=24    page=0  chnl=15
char id=181  x=102   y=33    width=14    height=32    xoffset=0     yoffset=0     xadvance=24    page=0  chnl=15
char id=182  x=117   y=33    width=14    height=32    xoffset=0     yoffset=0     xadvance=24    page=0  chnl=15
char id=183  x=129   y=111   width=14    height=18    xoffset=0     yoffset=14    xadvance=24    page=1  chnl=15
char id=184  x=63    y=75    width=14    height=20    xoffset=0     yoffset=12    xadvance=24    page=1  chnl=15
char id=185  x=42    y=33    width=14    height=32    xoffset=0     yoffset=0     xadvance=24    page=0  chnl=15
char id=186  x=188   y=33    width=10    height=32    xoffset=4     yoffset=0     xadvance=24    page=0  chnl=15
char id=187  x=78    y=75    width=14    height=20    xoffset=0     yoffset=12    xadvance=24    page=1  chnl=15
char id=188  x=175   y=48    width=14    height=22    xoffset=0     yoffset=0     xadvance=24    page=1  chnl=15
char id=189  x=204   y=109   width=14    height=18    xoffset=0     yoffset=0     xadvance=24    page=1  chnl=15
char id=190  x=190   y=48    width=14    height=22    xoffset=0     yoffset=0     xadvance=24    page=1  chnl=15
char id=191  x=174   y=109   width=14    height=18    xoffset=0     yoffset=14    xadvance=24    page=1  chnl=15
char id=192  x=189   y=109   width=14    height=18    xoffset=10    yoffset=0     xadvance=24    page=1  chnl=15
char id=193  x=108   y=73    width=24    height=18    xoffset=0     yoffset=0     xadvance=24    page=1  chnl=15
char id=194  x=133   y=71    width=24    height=18    xoffset=0     yoffset=14    xadvance=24    page=1  chnl=15
char id=195  x=72    y=33    width=14    height=32    xoffset=10    yoffset=0     xadvance=24    page=0  chnl=15
char id=196  x=45    y=147   width=24    height=4     xoffset=0     yoffset=14    xadvance=24    page=1  chnl=15
char id=197  x=100   y=0     width=24    height=32    xoffset=0     yoffset=0     xadvance=24    page=0  chnl=15
char id=198  x=57    y=33    width=14    height=32    xoffset=10    yoffset=0     xadvance=24    page=0  chnl=15
char id=199  x=21    y=33    width=20    height=32    xoffset=4     yoffset=0     xadvance=24    page=0  chnl=15
char id=200  x=84    y=50    width=20    height=22    xoffset=4     yoffset=0     xadvance=24    page=1  chnl=15
char id=201  x=25    y=75    width=20    height=20    xoffset=4     yoffset=12    xadvance=24    page=1  chnl=15
char id=202  x=119   y=25    width=24    height=22    xoffset=0     yoffset=0     xadvance=24    page=1  chnl=15
char id=203  x=231   y=48    width=24    height=20    xoffset=0     yoffset=12    xadvance=24    page=1  chnl=15
char id=204  x=0     y=33    width=20    height=32    xoffset=4     yoffset=0     xadvance=24    page=0  chnl=15
char id=205  x=121   y=132   width=24    height=10    xoffset=0     yoffset=12    xadvance=24    page=1  chnl=15
char id=206  x=50    y=0     width=24    height=32    xoffset=0     yoffset=0     xadvance=24    page=0  chnl=15
char id=207  x=144   y=25    width=24    height=22    xoffset=0     yoffset=0     xadvance=24    page=1  chnl=15
char id=208  x=158   y=71    width=24    height=18    xoffset=0     yoffset=0     xadvance=24    page=1  chnl=15
char id=209  x=0     y=75    width=24    height=20    xoffset=0     yoffset=12    xadvance=24    page=1  chnl=15
char id=210  x=183   y=71    width=24    height=18    xoffset=0     yoffset=14    xadvance=24    page=1  chnl=15
char id=211  x=42    y=96    width=20    height=18    xoffset=4     yoffset=0     xadvance=24    page=1  chnl=15
char id=212  x=160   y=48    width=14    height=22    xoffset=10    yoffset=0     xadvance=24    page=1  chnl=15
char id=213  x=93    y=73    width=14    height=20    xoffset=10    yoffset=12    xadvance=24    page=1  chnl=15
char id=214  x=0     y=96    width=20    height=18    xoffset=4     yoffset=14    xadvance=24    page=1  chnl=15
char id=215  x=25    y=0     width=24    height=32    xoffset=0     yoffset=0     xadvance=24    page=0  chnl=15
char id=216  x=150   y=0     width=24    height=32    xoffset=0     yoffset=0     xadvance=24    page=0  chnl=15
char id=217  x=159   y=109   width=14    height=18    xoffset=0     yoffset=0     xadvance=24    page=1  chnl=15
char id=218  x=144   y=111   width=14    height=18    xoffset=10    yoffset=14    xadvance=24    page=1  chnl=15
char id=219  x=200   y=0     width=24    height=32    xoffset=0     yoffset=0     xadvance=24    page=0  chnl=15
char id=220  x=65    y=238   width=24    height=16    xoffset=0     yoffset=16    xadvance=24    page=0  chnl=15
char id=221  x=175   y=33    width=12    height=32    xoffset=0     yoffset=0     xadvance=24    page=0  chnl=15
char id=222  x=162   y=33    width=12    height=32    xoffset=12    yoffset=0     xadvance=24    page=0  chnl=15
char id=223  x=90    y=238   width=24    height=16    xoffset=0     yoffset=0     xadvance=24    page=0  chnl=15
char id=224  x=232   y=109   width=16    height=14    xoffset=4     yoffset=14    xadvance=24    page=1  chnl=15
char id=225  x=38    y=27    width=16    height=24    xoffset=4     yoffset=8     xadvance=24    page=1  chnl=15
char id=226  x=166   y=211   width=18    height=26    xoffset=4     yoffset=2     xadvance=24    page=0  chnl=15
char id=227  x=92    y=0     width=22    height=24    xoffset=2     yoffset=4     xadvance=24    page=1  chnl=15
char id=228  x=147   y=211   width=18    height=26    xoffset=4     yoffset=2     xadvance=24    page=0  chnl=15
char id=229  x=229   y=71    width=20    height=18    xoffset=2     yoffset=10    xadvance=24    page=1  chnl=15
char id=230  x=19    y=27    width=18    height=24    xoffset=2     yoffset=8     xadvance=24    page=1  chnl=15
char id=231  x=0     y=115   width=18    height=18    xoffset=4     yoffset=10    xadvance=24    page=1  chnl=15
char id=232  x=63    y=153   width=20    height=28    xoffset=2     yoffset=0     xadvance=24    page=0  chnl=15
char id=233  x=89    y=25    width=16    height=24    xoffset=4     yoffset=4     xadvance=24    page=1  chnl=15
char id=234  x=124   y=48    width=18    height=22    xoffset=4     yoffset=6     xadvance=24    page=1  chnl=15
char id=235  x=106   y=25    width=12    height=24    xoffset=6     yoffset=4     xadvance=24    page=1  chnl=15
char id=236  x=146   y=130   width=20    height=10    xoffset=2     yoffset=12    xadvance=24    page=1  chnl=15
char id=237  x=0     y=27    width=18    height=24    xoffset=4     yoffset=6     xadvance=24    page=1  chnl=15
char id=238  x=0     y=184   width=16    height=28    xoffset=4     yoffset=0     xadvance=24    page=0  chnl=15
char id=239  x=15    y=0     width=14    height=26    xoffset=4     yoffset=2     xadvance=24    page=1  chnl=15
char id=240  x=46    y=75    width=16    height=20    xoffset=4     yoffset=6     xadvance=24    page=1  chnl=15
char id=241  x=219   y=109   width=12    height=18    xoffset=6     yoffset=8     xadvance=24    page=1  chnl=15
char id=242  x=128   y=211   width=18    height=26    xoffset=4     yoffset=2     xadvance=24    page=0  chnl=15
char id=243  x=224   y=0     width=18    height=24    xoffset=4     yoffset=4     xadvance=24    page=1  chnl=15
char id=244  x=147   y=33    width=14    height=32    xoffset=10    yoffset=0     xadvance=24    page=0  chnl=15
char id=245  x=132   y=33    width=14    height=32    xoffset=0     yoffset=0     xadvance=24    page=0  chnl=15
char id=246  x=174   y=238   width=16    height=16    xoffset=4     yoffset=8     xadvance=24    page=0  chnl=15
char id=247  x=136   y=238   width=20    height=16    xoffset=2     yoffset=8     xadvance=24    page=0  chnl=15
char id=248  x=99    y=134   width=12    height=12    xoffset=6     yoffset=0     xadvance=24    page=1  chnl=15
char id=249  x=86    y=134   width=12    height=12    xoffset=6     yoffset=10    xadvance=24    page=1  chnl=15
char id=250  x=249   y=114   width=6     height=8     xoffset=10    yoffset=12    xadvance=24    page=1  chnl=15
char id=251  x=44    y=213   width=20    height=26    xoffset=4     yoffset=2     xadvance=24    page=0  chnl=15
char id=252  x=216   y=128   width=10    height=10    xoffset=4     yoffset=0     xadvance=24    page=1  chnl=15
char id=253  x=205   y=128   width=10    height=10    xoffset=4     yoffset=0     xadvance=24    page=1  chnl=15
char id=254  x=112   y=132   width=8     height=12    xoffset=8     yoffset=8     xadvance=24    page=1  chnl=15
char id=255  x=45    y=152   width=72    height=1     xoffset=-24   yoffset=31    xadvance=24    page=1  chnl=15
